<svg xmlns="http://www.w3.org/2000/svg" viewBox="0 0 13.94 30"><defs><style>.cls-1{fill:#fff;}</style>
</defs><title>Ресурс 1</title><g id="Слой_2" data-name="Слой 2"><g id="Layer_1" data-name="Layer 1">
<path class="cls-1" d="M3,30H9.19V15h4.2l.54-5.29H9.19V6.6a1.27,1.27,0,0,1,1.32-1.44h3.35V0L9.25,0C4.13,0,3,3.83,3,6.29V9.71H0V15H3Z"/>
</g></g></svg>